<?xml version="1.0" standalone="no"?>
<!DOCTYPE svg PUBLIC "-//W3C//DTD SVG 1.1//EN" "http://www.w3.org/Graphics/SVG/1.1/DTD/svg11.dtd">
<svg xmlns="http://www.w3.org/2000/svg">
<metadata>Copyright (C) 2015 by original authors @ fontello.com</metadata>
<defs>
<font id="sl-fonts" horiz-adv-x="1000" >
<font-face font-family="sl-fonts" font-weight="400" font-stretch="normal" units-per-em="1000" ascent="850" descent="-150" />
<missing-glyph horiz-adv-x="1000" />
<glyph glyph-name="home" unicode="&#xe800;" d="m0-150l0 649 453 351 453-351 0-649-312 0 0 391-281 0 0-391-313 0z" horiz-adv-x="906" />
<glyph glyph-name="search" unicode="&#xe801;" d="m643 386q0 103-74 176t-176 74-177-74-73-176 73-177 177-73 176 73 74 177z m286-465q0-29-22-50t-50-21q-30 0-50 21l-191 191q-100-69-223-69-80 0-153 31t-125 84-84 125-31 153 31 152 84 126 125 84 153 31 152-31 126-84 84-126 31-152q0-123-69-223l191-191q21-21 21-51z" horiz-adv-x="928.6" />
<glyph glyph-name="facebook" unicode="&#xe802;" d="m0-150l0 1000 1000 0 0-1000-1000 0z m471 469l92 0 0-352 132 0 0 352 129 0 6 127-135 0 0 94q0 31 12 43t41 13l80 0 2 117q-59 6-88 6l-23 0q-31 0-57-10-99-39-99-154l0-109-92 0 0-127z" horiz-adv-x="1000" />
<glyph glyph-name="googleplus" unicode="&#xe803;" d="m0-150l0 125q51 59 143 76 82 12 105 12 18 0 35-2 14-12 63-45t72-55q55-47 55-95 0-10-2-16l-471 0z m0 207l0 254q90-66 203-51-27-68 2-115 14-21 29-43l-50 0q-131-4-184-45z m0 617l0 176 1000 0 0-271-184 0 0 185-80 0 0-185-185 0 0-77 185 0 0-187 80 0 0 187 184 0 0-652-443 0q19 72-6 131-26 57-84 107-28 24-102 82-39 28-39 63 2 31 41 72 57 43 82 82 35 53 35 125 0 67-31 119-19 32-56 67l87 0 82 66-306 0q-74-2-145-24t-115-66z m59-60q13 58 70 86 25 11 55 13 45 0 80-27 68-57 91-154 20-78 2-129-23-67-74-80-78-22-133 15-64 51-86 141-15 68-5 135z" horiz-adv-x="1000" />
<glyph glyph-name="mail" unicode="&#xe804;" d="m0-29l324 342 176-100 176 100 324-342-1000 0z m0 114l0 414 254-147z m0 503l0 141 1000 0 0-141-500-285z m746-236l254 147 0-414z" horiz-adv-x="1000" />
<glyph glyph-name="print" unicode="&#xe805;" d="m0 176l0 305 1000 0 0-305-154 0 54-265-800 0 54 265-154 0z m33 362l235 99 39 0 0 153 386 0 0-153 39 0 235-99-934 0z m131-553l672 0-78 381-516 0z" horiz-adv-x="1000" />
<glyph glyph-name="right-hand" unicode="&#xe806;" d="m0 39l0 348q2 25 21 44t44 18l154 0q23 18 60 59t59 56q21 18 35 41 10 22 19 78t30 79q57 23 115-4t78-82q28-76-17-170 54 0 273-2 57-4 93-38t36-89q0-53-38-88t-91-37l-107 0q-6-31-22-57 10-68-33-119-4-72-42-109t-98-39-117 8-124 24-94 15l-170 0q-27 2-45 20t-19 44z m231 0q23 0 83-15t116-25 109-13 83 27 19 91q27 13 36 46t-7 59q59 59 10 107l191 0q27 2 45 20t20 41q-2 29-20 46t-45 18l-365 0q4 24 20 67t28 73 4 66-42 58q-26 14-47 10-4-2-5-5t-1-7q-8-45-13-68t-20-56-41-54q-18-13-68-68t-87-70l-3 0 0-348z" horiz-adv-x="1000" />
<glyph glyph-name="star" unicode="&#xe807;" d="m929 489q0-12-15-27l-203-197 48-279q1-4 1-12 0-11-6-19t-17-9q-10 0-22 7l-251 132-250-132q-13-7-23-7-11 0-17 9t-6 19q0 4 1 12l48 279-203 197q-14 15-14 27 0 21 31 26l280 40 126 254q11 23 27 23t28-23l125-254 280-40q32-5 32-26z" horiz-adv-x="928.6" />
<glyph glyph-name="star-empty" unicode="&#xe808;" d="m634 290l171 165-235 35-106 213-105-213-236-35 171-165-41-235 211 111 211-111z m295 199q0-12-15-27l-203-197 48-279q1-4 1-12 0-28-23-28-10 0-22 7l-251 132-250-132q-13-7-23-7-11 0-17 9t-6 19q0 4 1 12l48 279-203 197q-14 15-14 27 0 21 31 26l280 40 126 254q11 23 27 23t28-23l125-254 280-40q32-5 32-26z" horiz-adv-x="928.6" />
<glyph glyph-name="star-half-alt" unicode="&#xe809;" d="m662 316l143 139-198 29-37 6-17 34-89 179v-537l33-17 178-94-34 198-7 37z m252 146l-202-197 47-279q3-19-3-29t-19-11q-9 0-22 7l-251 132-250-132q-13-7-23-7-12 0-19 11t-3 29l48 279-203 197q-18 18-13 33t30 20l280 40 126 254q11 23 27 23 16 0 28-23l125-254 280-40q25-4 30-20t-13-33z" horiz-adv-x="928.6" />
<glyph glyph-name="down-open-mini" unicode="&#xe80a;" d="m405 470q22 26 48 0 26-22 0-48l-196-192q-22-22-48 0l-196 192q-26 26 0 48 24 24 50 0l170-156z" horiz-adv-x="466" />
<glyph glyph-name="left-open-mini" unicode="&#xe80b;" d="m252 180q26-26 0-48-26-26-48 0l-192 194q-24 24 0 50l192 194q22 26 48 0 26-22 0-48l-156-172z" horiz-adv-x="265" />
<glyph glyph-name="right-open-mini" unicode="&#xe80c;" d="m13 180l158 170-158 172q-26 26 0 48 26 26 48 0l192-194q24-26 0-50l-192-194q-22-26-48 0-26 22 0 48z" horiz-adv-x="265" />
<glyph glyph-name="up-open-mini" unicode="&#xe80d;" d="m62 230q-26-22-50 0-24 24 0 50l196 190q26 26 48 0l196-190q24-26 0-50-24-22-50 0l-170 158z" horiz-adv-x="464" />
<glyph glyph-name="doc-text-inv" unicode="&#xe80e;" d="m600 800q42 0 71-29t29-71l0-700q0-40-29-70t-71-30l-500 0q-40 0-70 30t-30 70l0 700q0 42 30 71t70 29l500 0z m-460-208l0-88 420 0 0 88-420 0z m420-480l0 88-420 0 0-88 420 0z m0 196l0 90-418 0 0-90 418 0z" horiz-adv-x="700" />
</font>
</defs>
</svg>